# st_as_sf works as expected

    Code
      st_as_sf(as_post_array(polygons))
    Output
      Simple feature collection with 25 features and 2 fields
      Active geometry column: geometry
      Geometry type: POLYGON
      Dimension:     XY
      Bounding box:  xmin: -0.2974337 ymin: -0.00297557 xmax: 0.9730806 ymax: 1.153558
      Geodetic CRS:  WGS 84
      # A tibble: 25 x 4
         gid                   geom_sum datetime                              geometry
         <chr>              <POINT [°]> <date>                           <POLYGON [°]>
       1 a         (0.647816 0.9018588) 2020-10-01 ((0.5474949 0.8088912, 0.4874872 0~
       2 a         (0.647816 0.9018588) 2020-10-02 ((0.4961102 0.8728385, 0.4361026 0~
       3 a         (0.647816 0.9018588) 2020-10-03 ((0.5578801 0.8616378, 0.5623908 1~
       4 a         (0.647816 0.9018588) 2020-10-04 ((0.5652241 0.872057, 0.5685463 1.~
       5 a         (0.647816 0.9018588) 2020-10-05 ((0.6063791 0.8304178, 0.5463715 0~
       6 b     (-0.002543201 0.8403816) 2020-10-01 ((0.2791708 0.8337388, -0.2847997 ~
       7 b     (-0.002543201 0.8403816) 2020-10-02 ((0.3298312 0.7612067, -0.2341393 ~
       8 b     (-0.002543201 0.8403816) 2020-10-03 ((0.3796448 0.767853, -0.1843257 0~
       9 b     (-0.002543201 0.8403816) 2020-10-04 ((0.3642467 0.779727, -0.1182199 0~
      10 b     (-0.002543201 0.8403816) 2020-10-05 ((0.2665368 0.8649996, -0.2974337 ~
      # i 15 more rows

---

    Code
      st_as_sf(as_post_table(polygons))
    Output
      Simple feature collection with 25 features and 4 fields
      Active geometry column: geometry
      Geometry type: POLYGON
      Dimension:     XY
      Bounding box:  xmin: -0.2974337 ymin: -0.00297557 xmax: 0.9730806 ymax: 1.153558
      Geodetic CRS:  WGS 84
      # A tibble: 25 x 6
         gid       long   lat                 geom_sum datetime  
         <chr>    <dbl> <dbl>              <POINT [°]> <date>    
       1 a      0.648   0.902     (0.647816 0.9018588) 2020-10-01
       2 a      0.648   0.902     (0.647816 0.9018588) 2020-10-02
       3 a      0.648   0.902     (0.647816 0.9018588) 2020-10-03
       4 a      0.648   0.902     (0.647816 0.9018588) 2020-10-04
       5 a      0.648   0.902     (0.647816 0.9018588) 2020-10-05
       6 b     -0.00254 0.840 (-0.002543201 0.8403816) 2020-10-01
       7 b     -0.00254 0.840 (-0.002543201 0.8403816) 2020-10-02
       8 b     -0.00254 0.840 (-0.002543201 0.8403816) 2020-10-03
       9 b     -0.00254 0.840 (-0.002543201 0.8403816) 2020-10-04
      10 b     -0.00254 0.840 (-0.002543201 0.8403816) 2020-10-05
      # i 15 more rows
      # i 1 more variable: geometry <POLYGON [°]>

---

    Code
      st_as_sf(face_temporal(as_post_table(polygons)))
    Output
      Simple feature collection with 25 features and 4 fields
      Active geometry column: geometry
      Geometry type: POLYGON
      Dimension:     XY
      Bounding box:  xmin: -0.2974337 ymin: -0.00297557 xmax: 0.9730806 ymax: 1.153558
      Geodetic CRS:  WGS 84
      # A tibble: 25 x 6
         gid       long   lat                 geom_sum datetime  
         <chr>    <dbl> <dbl>              <POINT [°]> <date>    
       1 a      0.648   0.902     (0.647816 0.9018588) 2020-10-01
       2 a      0.648   0.902     (0.647816 0.9018588) 2020-10-02
       3 a      0.648   0.902     (0.647816 0.9018588) 2020-10-03
       4 a      0.648   0.902     (0.647816 0.9018588) 2020-10-04
       5 a      0.648   0.902     (0.647816 0.9018588) 2020-10-05
       6 b     -0.00254 0.840 (-0.002543201 0.8403816) 2020-10-01
       7 b     -0.00254 0.840 (-0.002543201 0.8403816) 2020-10-02
       8 b     -0.00254 0.840 (-0.002543201 0.8403816) 2020-10-03
       9 b     -0.00254 0.840 (-0.002543201 0.8403816) 2020-10-04
      10 b     -0.00254 0.840 (-0.002543201 0.8403816) 2020-10-05
      # i 15 more rows
      # i 1 more variable: geometry <POLYGON [°]>
…
