Compatibility with other packages • post
…
# post_array
arr = as_post_array(polygons,
                    geometry_summary = summarise_geometry_bbox, 
                    rotated = TRUE)
#> Warning in st_minimum_rotated_rectangle.sfc(x_unioned):
#> st_minimum_rotated_rectangle does not work correctly for longitude/latitude
#> data
st_as_sf(arr)
#> Simple feature collection with 25 features and 2 fields
#> Active geometry column: geometry
#> Geometry type: POLYGON
#> Dimension:     XY
#> Bounding box:  xmin: -0.2974337 ymin: -0.00297557 xmax: 0.9730806 ymax: 1.153558
#> Geodetic CRS:  WGS 84
#> # A tibble: 25 × 4
#>    gid                             geom_sum datetime                    geometry
#>    <chr>                      <POLYGON [°]> <date>                 <POLYGON [°]>
#>  1 a     ((0.5137787 1.117004, 0.9005707 0… 2020-10-01 ((0.5474949 0.8088912, 0…
#>  2 a     ((0.5137787 1.117004, 0.9005707 0… 2020-10-02 ((0.4961102 0.8728385, 0…
#>  3 a     ((0.5137787 1.117004, 0.9005707 0… 2020-10-03 ((0.5578801 0.8616378, 0…
#>  4 a     ((0.5137787 1.117004, 0.9005707 0… 2020-10-04 ((0.5652241 0.872057, 0.…
#>  5 a     ((0.5137787 1.117004, 0.9005707 0… 2020-10-05 ((0.6063791 0.8304178, 0…
#>  6 b     ((-0.008469583 1.165177, 0.379644… 2020-10-01 ((0.2791708 0.8337388, -…
#>  7 b     ((-0.008469583 1.165177, 0.379644… 2020-10-02 ((0.3298312 0.7612067, -…
#>  8 b     ((-0.008469583 1.165177, 0.379644… 2020-10-03 ((0.3796448 0.767853, -0…
#>  9 b     ((-0.008469583 1.165177, 0.379644… 2020-10-04 ((0.3642467 0.779727, -0…
#> 10 b     ((-0.008469583 1.165177, 0.379644… 2020-10-05 ((0.2665368 0.8649996, -…
#> # ℹ 15 more rows
…
tab = as_post_table(polygons,
                    geometry_summary = summarise_geometry_bbox, 
                    rotated = TRUE)
#> Warning in st_minimum_rotated_rectangle.sfc(x_unioned):
#> st_minimum_rotated_rectangle does not work correctly for longitude/latitude
#> data
#> Warning: st_centroid assumes attributes are constant over geometries
st_as_sf(tab)
#> Simple feature collection with 25 features and 4 fields
#> Active geometry column: geometry
#> Geometry type: POLYGON
#> Dimension:     XY
#> Bounding box:  xmin: -0.2974337 ymin: -0.00297557 xmax: 0.9730806 ymax: 1.153558
#> Geodetic CRS:  WGS 84
#> # A tibble: 25 × 6
#>    gid      long   lat                                       geom_sum datetime  
#>    <chr>   <dbl> <dbl>                                  <POLYGON [°]> <date>    
#>  1 a      0.638  0.885 ((0.5137787 1.117004, 0.9005707 0.866971, 0.7… 2020-10-01
#>  2 a      0.638  0.885 ((0.5137787 1.117004, 0.9005707 0.866971, 0.7… 2020-10-02
#>  3 a      0.638  0.885 ((0.5137787 1.117004, 0.9005707 0.866971, 0.7… 2020-10-03
#>  4 a      0.638  0.885 ((0.5137787 1.117004, 0.9005707 0.866971, 0.7… 2020-10-04
#>  5 a      0.638  0.885 ((0.5137787 1.117004, 0.9005707 0.866971, 0.7… 2020-10-05
#>  6 b     -0.0180 0.768 ((-0.008469583 1.165177, 0.3796448 0.767853, … 2020-10-01
#>  7 b     -0.0180 0.768 ((-0.008469583 1.165177, 0.3796448 0.767853, … 2020-10-02
#>  8 b     -0.0180 0.768 ((-0.008469583 1.165177, 0.3796448 0.767853, … 2020-10-03
#>  9 b     -0.0180 0.768 ((-0.008469583 1.165177, 0.3796448 0.767853, … 2020-10-04
#> 10 b     -0.0180 0.768 ((-0.008469583 1.165177, 0.3796448 0.767853, … 2020-10-05
#> # ℹ 15 more rows
#> # ℹ 1 more variable: geometry <POLYGON [°]>
…
